<svg width="1067" height="1239" viewBox="0 0 1067 1239" fill="none" xmlns="http://www.w3.org/2000/svg">
<g filter="url(#filter0_f_5_332)">
<ellipse cx="416.63" cy="619.5" rx="225.5" ry="195.5" fill="#CB00DD" fill-opacity="0.2"/>
</g>
<defs>
<filter id="filter0_f_5_332" x="-232.87" y="0" width="1299" height="1239" filterUnits="userSpaceOnUse" color-interpolation-filters="sRGB">
<feFlood flood-opacity="0" result="BackgroundImageFix"/>
<feBlend mode="normal" in="SourceGraphic" in2="BackgroundImageFix" result="shape"/>
<feGaussianBlur stdDeviation="212" result="effect1_foregroundBlur_5_332"/>
</filter>
</defs>
</svg>
